Rtutorial
…
Add your responses after the dashes below:

Your response here

Hint: check the files panel.

Viewing or inspecting data

Let’s quickly check our data.

view(sci_data)
sci_data

# A tibble: 603 × 30
   student_id course_id     total_points_possible total_points_earned
        <dbl> <chr>                         <dbl>               <dbl>
 1      43146 FrScA-S216-02                  3280                2220
 2      44638 OcnA-S116-01                   3531                2672
 3      47448 FrScA-S216-01                  2870                1897
 4      47979 OcnA-S216-01                   4562                3090
 5      48797 PhysA-S116-01                  2207                1910
 6      51943 FrScA-S216-03                  4208                3596
 7      52326 AnPhA-S216-01                  4325                2255
 8      52446 PhysA-S116-01                  2086                1719
 9      53447 FrScA-S116-01                  4655                3149
10      53475 FrScA-S116-02                  1710                1402
# ℹ 593 more rows
# ℹ 26 more variables: percentage_earned <dbl>, subject <chr>, semester <chr>,
#   section <chr>, Gradebook_Item <chr>, Grade_Category <lgl>,
#   FinalGradeCEMS <dbl>, Points_Possible <dbl>, Points_Earned <dbl>,
#   Gender <chr>, q1 <dbl>, q2 <dbl>, q3 <dbl>, q4 <dbl>, q5 <dbl>, q6 <dbl>,
#   q7 <dbl>, q8 <dbl>, q9 <dbl>, q10 <dbl>, TimeSpent <dbl>,
#   TimeSpent_hours <dbl>, TimeSpent_std <dbl>, int <dbl>, pc <dbl>, uv <dbl>
…
Remember our research question, what we were interested in finding about this data?

Let’s practice selecting a few variables by introducing pipe operator, |>. Pipes are a powerful tool for combining a sequence of functions or processes.

Run the following code chunck to “pipe” our sci_data to the select() function include the following two variables as arguments:

FinalGradeCEMS (i.e., students’ final grades on a 0-100 point scale)

TimeSpent (i.e., the number of minutes they spent in the course’s learning management system)

sci_data|>
  select(FinalGradeCEMS,TimeSpent)

# A tibble: 603 × 2
   FinalGradeCEMS TimeSpent
            <dbl>     <dbl>
 1           93.5   1555.  
 2           81.7   1383.  
 3           88.5    860.  
 4           81.9   1599.  
 5           84     1482.  
 6           NA        3.45
 7           83.6   1322.  
 8           97.8   1390.  
 9           96.1   1479.  
10           NA       NA   
# ℹ 593 more rows

Notice how the number of columns (variables) is now different! Let’s check our data with View() function this time.

view(sci_data)

A quick footnote about pipes: The original pipe operator, %>%, comes from the {magrittr} package but all packages in the tidyverse load %>% for you automatically, so you don’t usually load magrittr explicitly. The pipe has become such a useful and much used operator in R that it is now baked into R using the new and simpler native pipe |> operator. You can use both fairly interchangeably but there are a few differences between pipe operators.

Filtering Variables

Let’s exploring filtering variables. We will filter our data to view only the rows associated with students who earned a final grade (as a percentage) of 70 or 70% or higher.

sci_data|>
  filter(FinalGradeCEMS>70)

# A tibble: 438 × 30
   student_id course_id     total_points_possible total_points_earned
        <dbl> <chr>                         <dbl>               <dbl>
 1      43146 FrScA-S216-02                  3280                2220
 2      44638 OcnA-S116-01                   3531                2672
 3      47448 FrScA-S216-01                  2870                1897
 4      47979 OcnA-S216-01                   4562                3090
 5      48797 PhysA-S116-01                  2207                1910
 6      52326 AnPhA-S216-01                  4325                2255
 7      52446 PhysA-S116-01                  2086                1719
 8      53447 FrScA-S116-01                  4655                3149
 9      53475 FrScA-S216-01                  1209                 977
10      54066 OcnA-S116-01                   4641                3429
# ℹ 428 more rows
# ℹ 26 more variables: percentage_earned <dbl>, subject <chr>, semester <chr>,
#   section <chr>, Gradebook_Item <chr>, Grade_Category <lgl>,
#   FinalGradeCEMS <dbl>, Points_Possible <dbl>, Points_Earned <dbl>,
#   Gender <chr>, q1 <dbl>, q2 <dbl>, q3 <dbl>, q4 <dbl>, q5 <dbl>, q6 <dbl>,
#   q7 <dbl>, q8 <dbl>, q9 <dbl>, q10 <dbl>, TimeSpent <dbl>,
#   TimeSpent_hours <dbl>, TimeSpent_std <dbl>, int <dbl>, pc <dbl>, uv <dbl>

Your Turn:

In the next code chunk, change the cut-off from 70% to some other value-larger or smaller (maybe much larger or smaller) - feel free to play around with the code a bit!

sci_data|>
  filter(FinalGradeCEMS>60)

# A tibble: 495 × 30
   student_id course_id     total_points_possible total_points_earned
        <dbl> <chr>                         <dbl>               <dbl>
 1      43146 FrScA-S216-02                  3280                2220
 2      44638 OcnA-S116-01                   3531                2672
 3      47448 FrScA-S216-01                  2870                1897
 4      47979 OcnA-S216-01                   4562                3090
 5      48797 PhysA-S116-01                  2207                1910
 6      52326 AnPhA-S216-01                  4325                2255
 7      52446 PhysA-S116-01                  2086                1719
 8      53447 FrScA-S116-01                  4655                3149
 9      53475 FrScA-S216-01                  1209                 977
10      54066 OcnA-S116-01                   4641                3429
# ℹ 485 more rows
# ℹ 26 more variables: percentage_earned <dbl>, subject <chr>, semester <chr>,
#   section <chr>, Gradebook_Item <chr>, Grade_Category <lgl>,
#   FinalGradeCEMS <dbl>, Points_Possible <dbl>, Points_Earned <dbl>,
#   Gender <chr>, q1 <dbl>, q2 <dbl>, q3 <dbl>, q4 <dbl>, q5 <dbl>, q6 <dbl>,
#   q7 <dbl>, q8 <dbl>, q9 <dbl>, q10 <dbl>, TimeSpent <dbl>,
#   TimeSpent_hours <dbl>, TimeSpent_std <dbl>, int <dbl>, pc <dbl>, uv <dbl>

What happens when you change the cut-off from 70 to something else?

The amount of observations went up from 438 to 495 when I changed the cutoff to 60%

Arrange

The last function we’ll use for preparing tables in arrange. We’ll again use the pipe operator to combine this with arrange() function we used already -select(). We do this so we can view only time spent and final grades.

sci_data|>
  select(FinalGradeCEMS,TimeSpent)|>
  arrange(FinalGradeCEMS)

# A tibble: 603 × 2
   FinalGradeCEMS TimeSpent
            <dbl>     <dbl>
 1          0          13.9
 2          0.535     306. 
 3          0.903      88.5
 4          1.80       44.7
 5          2.93       57.7
 6          3.01      571. 
 7          3.06        0.7
 8          3.43      245. 
 9          5.04      202. 
10          5.2        11.0
# ℹ 593 more rows

Note that arrange works by sorting values in ascending order (from lowest to highest); you can change this by using the desc() function as an argument with.

#let's change the order from asc to desc
sci_data|>
  select(FinalGradeCEMS,TimeSpent)|>
  arrange(desc(FinalGradeCEMS))

# A tibble: 603 × 2
   FinalGradeCEMS TimeSpent
            <dbl>     <dbl>
 1          100       2689.
 2           99.8     2921.
 3           99.3      965.
 4           99.1      879.
 5           99.0     1770.
 6           98.6     1138.
 7           98.6     1270.
 8           98.6     1273.
 9           98.2     1902.
10           98.2     5373.
# ℹ 593 more rows

Your Turn:

In the next code chunk, replace FinalGradeCEMS that is used with both the select() and arrange() functions with a different variable in the dataset.

sci_data|>
  select(course_id,TimeSpent)|>
  arrange(desc(course_id))

# A tibble: 603 × 2
   course_id     TimeSpent
   <chr>             <dbl>
 1 PhysA-T116-01     2824.
 2 PhysA-T116-01     1289.
 3 PhysA-S216-01      719.
 4 PhysA-S216-01      719.
 5 PhysA-S216-01     1770.
 6 PhysA-S216-01     2322.
 7 PhysA-S216-01     4552.
 8 PhysA-S216-01     2415.
 9 PhysA-S216-01      610.
10 PhysA-S216-01       47 
# ℹ 593 more rows
…
